…
\#\#A variety of things

| word      | president | score | occassion |
| :-------- | :-------- | ----: | :-------- |
| economy   | obama     |     3 | SOTU      |
| polan     | obama     |     2 | SOTU      |
| health    | obama     |     2 | SOTU      |
| education | obama     |     2 | SOTU      |

A subset of our system.

    ## # A tibble: 62 x 9
    ##    reference `sum(value)` `sd(score).x` `mean(score).x` type.x `sum(score)`
    ##        <int>        <dbl>         <dbl>           <dbl> <chr>         <dbl>
    ##  1         1            5         2.22             1.25 Afinn            25
    ##  2         2           10         0.516            1.67 Afinn            50
    ##  3         3           -4         2.08            -1.33 Afinn            11
    ##  4         7           -1        NA               -1    Afinn            14
    ##  5         8            8         1.67             1.6  Afinn            74
    ##  6         9           14         0.816            2.33 Afinn            25
    ##  7        10            6         0.577            1.5  Afinn            NA
    ##  8        11            0         2                0    Afinn            62
    ##  9        12            5         2.83             1    Afinn            22
    ## 10        13            6         0                2    Afinn            29
    ## # … with 52 more rows, and 3 more variables: `sd(score).y` <dbl>,
    ## #   `mean(score).y` <dbl>, type.y <chr>
…
